{
  "alwaysUsePreferredHint": {
    "message": "This option will redirect all known instance to the preferred one."
  },
  "alwaysUsePreferredLabel": {
    "message": "Always use preferred"
  },
  "audioLabel": {
    "message": "Audio mode"
  },
  "autoplayLabel": {
    "message": "Autoplay"
  },
  "bibliogramInstancesHint": {
    "message": "You can find a list of different Nitter instances"
  },
  "bibliogramInstancesHintUrlText": {
    "description": "The text of the URL redirecting to Bibliogram instances list.",
    "message": "here"
  },
  "captionsLabel": {
    "message": "Default captions"
  },
  "commentsLegend": {
    "message": "Comments"
  },
  "continueLabel": {
    "message": "Play next"
  },
  "cookiesHint": {
    "message": "This option will override cookies settings if they exist."
  },
  "cookiesLabel": {
    "message": "Override cookies"
  },
  "copyCleanedLink": {
    "message": "Copy cleaned link"
  },
  "customButton": {
    "message": "Custom"
  },
  "customInstanceHint": {
    "description": "This message appears when the user tries to enter a custom instance",
    "message": "Type only the domain name of the instance. Example: invidio.us or nitter.net"
  },
  "darkModeLabel": {
    "message": "Dark Mode"
  },
  "enableInviditionLabel": {
    "message": "Enable Invidition"
  },
  "enableLabel": {
    "message": "Enabled"
  },
  "extName": {
    "description": "Extension name.",
    "message": "Invidition"
  },
  "extShortDesc": {
    "description": "This will be in the store. Must be 132 characters or less.",
    "message": "Redirects YouTube, Instagram and Twitter to their alternative, ads-free, privacy-friendly, interfaces."
  },
  "fastestButton": {
    "message": "Fastest"
  },
  "instanceHint": {
    "message": "All instances are not up to date and some parameters could not work for such instances."
  },
  "instanceLabel": {
    "message": "Instance"
  },
  "instanceLegend": {
    "message": "Instance"
  },
  "interfaceLegend": {
    "message": "Interface"
  },
  "languageLabel": {
    "message": "Language"
  },
  "listButton": {
    "message": "List"
  },
  "loopLabel": {
    "message": "Loop mode"
  },
  "miscLegend": {
    "message": "Miscellaneous"
  },
  "nitterInstancesHint": {
    "description": "Displays a Hint indicating different instances exist for Nitter.",
    "message": "You can find a list of different Nitter instances"
  },
  "nitterInstancesHintUrlText": {
    "description": "The text of the URL redirecting to Nitter instances list.",
    "message": "here"
  },
  "noJSLabel": {
    "message": "Load without Javascript"
  },
  "openOptionsPageHint": {
    "message": "Settings"
  },
  "playerStyleLabel": {
    "message": "Player style"
  },
  "proxyHint": {
    "message": "Video will be proxied though the selected Invidious instance.\n⚠ Some instances does not allow this feature. ⚠"
  },
  "proxyLabel": {
    "message": "Use Proxy"
  },
  "qualityHint": {
    "message": "Dash quality will let you access to 1080p videos when available."
  },
  "qualityLabel": {
    "message": "Quality"
  },
  "randomButton": {
    "message": "Random"
  },
  "randomLabel": {
    "message": "Random"
  },
  "regionHint": {
    "message": "Provide hint for Invidious to load the video from the specified region."
  },
  "regionLabel": {
    "message": "Region"
  },
  "resetSettingsLink": {
    "message": "Reset settings"
  },
  "rewriteLinksLabel": {
    "message": "Rewrite Links"
  },
  "thinModeLabel": {
    "message": "Thin mode"
  },
  "torWarning": {
    "message": "It is not recommended to use clearnet URLs. Fastest and Random instances selection will use Onion URLs."
  },
  "useParametersHint": {
    "message": "Disable this option to prevent Invidition to add parameters to the URL. The extension would so only redirect to the choose instance."
  },
  "useParametersLabel": {
    "message": "Use parameters"
  },
  "videoLegend": {
    "message": "Video"
  }
}
